{
	"resultCode": "0",
	"normalObject": {
		"approvalNo": "999999",
		"slipNo": "##SLIP_NO##",
		"amount": "9999999",
		"cupNo": "999999",
		"cupTradeDiv": "1",
		"searchResultDiv": "1",
		"cupSendDate": ##CUPSENDDATE##
	}
}